BF Assignment 2
…
class(Typical_Employee_Survey_Data_1_$`Job satisfaction`)

## [1] "numeric"

Typical_Employee_Survey_Data_1_$`Emp_ Age`

##   [1] 35 33 23 60 35 34 61 59 37 30 34 34 27 38 41 58 34 48 26 39 29 36 25 39 40 53 39 27 35 25 29 23 40 36 64 43 28 48 52
##  [40] 32 23 44 36 33 52 38 34 62 36 37 39 61 20 22 36 48 58 50 24 44 30 32 32 44 34 42 40 37 32 31 44 39 30 41 39 33 25 31
##  [79] 41 42 33 36 39 39 62 62 34 52 40 43 41 64 26 45 33 36 45 51 38 57 45 43 37 33 51 43 42 25 40 57 38 41 32 39 43 50 49
## [118] 35 22 33 29 22

Typical_Employee_Survey_Data_1_[3]

## # A tibble: 122 x 1
##    `Job satisfaction`
##                 <dbl>
##  1                  2
##  2                  2
##  3                  1
##  4                  1
##  5                  2
##  6                  2
##  7                  1
##  8                  2
##  9                  1
## 10                  1
## # ... with 112 more rows

Typical_Employee_Survey_Data_1_[7]

## # A tibble: 122 x 1
##    `Decision making`
##                <dbl>
##  1                 2
##  2                 2
##  3                 2
##  4                 2
##  5                 2
##  6                 2
##  7                 3
##  8                 1
##  9                 3
## 10                 2
## # ... with 112 more rows

Typical_Employee_Survey_Data_1_[c('Years active')]

## # A tibble: 122 x 1
##    `Years active`
##             <dbl>
##  1           3   
##  2           9   
##  3           1.5 
##  4          20   
##  5           3   
##  6           6   
##  7           0.75
##  8           1.5 
##  9           3   
## 10           5   
## # ... with 112 more rows

Typical_Employee_Survey_Data_1_[2:6]

## # A tibble: 122 x 5
##    Gender `Job satisfaction` `Job characterstics` `Years active` `Promotion prediction`
##    <fct>               <dbl>                <dbl>          <dbl>                  <dbl>
##  1 1                       2                    4           3                         1
##  2 1                       2                    3           9                         5
##  3 1                       1                    1           1.5                       1
##  4 1                       1                    1          20                         3
##  5 1                       2                    1           3                         3
##  6 2                       2                    1           6                         1
##  7 2                       1                    1           0.75                      5
##  8 1                       2                    5           1.5                       2
##  9 2                       1                    5           3                         4
## 10 1                       1                    5           5                         2
## # ... with 112 more rows
…
table(Typical_Employee_Survey_Data_1_$`Job satisfaction`)

## 
##  1  2  3  4 
## 65 44  6  7

Typical_Employee_Survey_Data_1_[order(Typical_Employee_Survey_Data_1_$`Emp_ Age`),]

## # A tibble: 122 x 11
##    `Emp_ Age` Gender `Job satisfaction` `Job characterstics` Years activ~1 Promo~2 Decis~3 Budge~4 Pride~5 Conti~6 cowor~7
##         <dbl> <fct>               <dbl>                <dbl>         <dbl>   <dbl>   <dbl>   <dbl>   <dbl>   <dbl>   <dbl>
##  1         20 1                       2                    4          3          2       3       1       3       2       1
##  2         22 1                       2                    5          1          3       3       1       2       5       2
##  3         22 1                       1                    5          1          1       1       2       2       4       1
##  4         22 1                       2                    2          1.25       1       2       2       2       4       2
##  5         23 1                       1                    1          1.5        1       2       2       1       5       2
##  6         23 2                       1                    2          0.75       1       3       1       1       1       1
##  7         23 1                       2                    1          1          1       2       2       3       4       1
##  8         24 1                       2                    5          1          2       2       2       2       4       1
##  9         25 1                       1                    4          2          1       3       2       2       4       2
## 10         25 1                       1                    5          2.5        5       2       1       1       2       1
## # ... with 112 more rows, and abbreviated variable names 1: `Years active`, 2: `Promotion prediction`,
## #   3: `Decision making`, 4: `Budget  decision`, 5: `Pride scale`, 6: `Continuation for higher pay`,
## #   7: `coworker relation`

Typical_Employee_Survey_Data_1_[order(-Typical_Employee_Survey_Data_1_$`Emp_ Age`),]

## # A tibble: 122 x 11
##    `Emp_ Age` Gender `Job satisfaction` `Job characterstics` Years activ~1 Promo~2 Decis~3 Budge~4 Pride~5 Conti~6 cowor~7
##         <dbl> <fct>               <dbl>                <dbl>         <dbl>   <dbl>   <dbl>   <dbl>   <dbl>   <dbl>   <dbl>
##  1         64 2                       1                    4          7          5       2       1       1       1       2
##  2         64 1                       1                    5         29          5       2       2       2       4       2
##  3         62 1                       1                    1         52.2        4       2       1       2       2       1
##  4         62 1                       1                    2         27          5       2       1       2       2       1
##  5         62 1                       1                    1          1.91       2       1       2       2       4       3
##  6         61 2                       1                    1          0.75       5       3       2       2       4       1
##  7         61 2                       1                    5         13          4       2       2       1       1       2
##  8         60 1                       1                    1         20          3       2       2       1       1       1
##  9         59 1                       2                    5          1.5        2       1       2       2       4       1
## 10         58 1                       2                    4         36          5       2       1       2       5       2
## # ... with 112 more rows, and abbreviated variable names 1: `Years active`, 2: `Promotion prediction`,
## #   3: `Decision making`, 4: `Budget  decision`, 5: `Pride scale`, 6: `Continuation for higher pay`,
## #   7: `coworker relation`
…
